{
  "page": 1,
  "total_results": 359881,
  "total_pages": 17995,
  "results": [
    {
      "vote_count": 2935,
      "id": 299536,
      "video": false,
      "vote_average": 8.6,
      "title": "Avengers: Infinity War",
      "popularity": 560.647002,
      "poster_path": "/7WsyChQLEftFiDOVTGkv3hFpyyt.jpg",
      "original_language": "en",
      "original_title": "Avengers: Infinity War",
      "genre_ids": [
        12,
        878,
        14,
        28
      ],
      "backdrop_path": "/bOGkgRGdhrBYJSLpXaxhXVstddV.jpg",
      "adult": false,
      "overview": "As the Avengers and their allies have continued to protect the world from threats too large for any one hero to handle, a new danger has emerged from the cosmic shadows: Thanos. A despot of intergalactic infamy, his goal is to collect all six Infinity Stones, artifacts of unimaginable power, and use them to inflict his twisted will on all of reality. Everything the Avengers have fought for has led up to this moment - the fate of Earth and existence itself has never been more uncertain.",
      "release_date": "2018-04-25"
    },
    {
      "vote_count": 1719,
      "id": 337167,
      "video": false,
      "vote_average": 6,
      "title": "Fifty Shades Freed",
      "popularity": 531.278675,
      "poster_path": "/jjPJ4s3DWZZvI4vw8Xfi4Vqa1Q8.jpg",
      "original_language": "en",
      "original_title": "Fifty Shades Freed",
      "genre_ids": [
        18,
        10749
      ],
      "backdrop_path": "/9ywA15OAiwjSTvg3cBs9B7kOCBF.jpg",
      "adult": false,
      "overview": "Believing they have left behind shadowy figures from their past, newlyweds Christian and Ana fully embrace an inextricable connection and shared life of luxury. But just as she steps into her role as Mrs. Grey and he relaxes into an unfamiliar stability, new threats could jeopardize their happy ending before it even begins.",
      "release_date": "2018-02-07"
    },
    {
      "vote_count": 4945,
      "id": 284054,
      "video": false,
      "vote_average": 7.3,
      "title": "Black Panther",
      "popularity": 278.8261,
      "poster_path": "/uxzzxijgPIY7slzFvMotPv8wjKA.jpg",
      "original_language": "en",
      "original_title": "Black Panther",
      "genre_ids": [
        28,
        12,
        14,
        878
      ],
      "backdrop_path": "/AlFqBwJnokrp9zWTXOUv7uhkaeq.jpg",
      "adult": false,
      "overview": "King T'Challa returns home from America to the reclusive, technologically advanced African nation of Wakanda to serve as his country's new leader. However, T'Challa soon finds that he is challenged for the throne by factions within his own country as well as without. Using powers reserved to Wakandan kings, T'Challa assumes the Black Panther mantel to join with girlfriend Nakia, the queen-mother, his princess-kid sister, members of the Dora Milaje (the Wakandan 'special forces') and an American secret agent, to prevent Wakanda from being dragged into a world war.",
      "release_date": "2018-02-13"
    },
    {
      "vote_count": 6066,
      "id": 284053,
      "video": false,
      "vote_average": 7.4,
      "title": "Thor: Ragnarok",
      "popularity": 176.328774,
      "poster_path": "/rzRwTcFvttcN1ZpX2xv4j3tSdJu.jpg",
      "original_language": "en",
      "original_title": "Thor: Ragnarok",
      "genre_ids": [
        28,
        12,
        14
      ],
      "backdrop_path": "/kaIfm5ryEOwYg8mLbq8HkPuM1Fo.jpg",
      "adult": false,
      "overview": "Thor is imprisoned on the other side of the universe and finds himself in a race against time to get back to Asgard to stop Ragnarok, the prophecy of destruction to his homeworld and the end of Asgardian civilization, at the hands of an all-powerful new threat, the ruthless Hela.",
      "release_date": "2017-10-25"
    },
    {
      "vote_count": 7130,
      "id": 269149,
      "video": false,
      "vote_average": 7.7,
      "title": "Zootopia",
      "popularity": 170.40617,
      "poster_path": "/sM33SANp9z6rXW8Itn7NnG1GOEs.jpg",
      "original_language": "en",
      "original_title": "Zootopia",
      "genre_ids": [
        16,
        12,
        10751,
        35
      ],
      "backdrop_path": "/mhdeE1yShHTaDbJVdWyTlzFvNkr.jpg",
      "adult": false,
      "overview": "Determined to prove herself, Officer Judy Hopps, the first bunny on Zootopia's police force, jumps at the chance to crack her first case - even if it means partnering with scam-artist fox Nick Wilde to solve the mystery.",
      "release_date": "2016-02-11"
    },
    {
      "vote_count": 12909,
      "id": 118340,
      "video": false,
      "vote_average": 7.9,
      "title": "Guardians of the Galaxy",
      "popularity": 164.025115,
      "poster_path": "/y31QB9kn3XSudA15tV7UWQ9XLuW.jpg",
      "original_language": "en",
      "original_title": "Guardians of the Galaxy",
      "genre_ids": [
        28,
        878,
        12
      ],
      "backdrop_path": "/bHarw8xrmQeqf3t8HpuMY7zoK4x.jpg",
      "adult": false,
      "overview": "Light years from Earth, 26 years after being abducted, Peter Quill finds himself the prime target of a manhunt after discovering an orb wanted by Ronan the Accuser.",
      "release_date": "2014-07-30"
    },
    {
      "vote_count": 470,
      "id": 427641,
      "video": false,
      "vote_average": 5.8,
      "title": "Rampage",
      "popularity": 150.895989,
      "poster_path": "/30oXQKwibh0uANGMs0Sytw3uN22.jpg",
      "original_language": "en",
      "original_title": "Rampage",
      "genre_ids": [
        28,
        12,
        878
      ],
      "backdrop_path": "/wrqUiMXttHE4UBFMhLHlN601MZh.jpg",
      "adult": false,
      "overview": "Primatologist Davis Okoye shares an unshakable bond with George, the extraordinarily intelligent, silverback gorilla who has been in his care since birth.  But a rogue genetic experiment gone awry mutates this gentle ape into a raging creature of enormous size.  To make matters worse, it’s soon discovered there are other similarly altered animals.  As these newly created alpha predators tear across North America, destroying everything in their path, Okoye teams with a discredited genetic engineer to secure an antidote, fighting his way through an ever-changing battlefield, not only to halt a global catastrophe but to save the fearsome creature that was once his friend.",
      "release_date": "2018-04-12"
    },
    {
      "vote_count": 14626,
      "id": 24428,
      "video": false,
      "vote_average": 7.5,
      "title": "The Avengers",
      "popularity": 123.972672,
      "poster_path": "/cezWGskPY5x7GaglTTRN4Fugfb8.jpg",
      "original_language": "en",
      "original_title": "The Avengers",
      "genre_ids": [
        878,
        28,
        12
      ],
      "backdrop_path": "/hbn46fQaRmlpBuUrEiFqv0GDL6Y.jpg",
      "adult": false,
      "overview": "When an unexpected enemy emerges and threatens global safety and security, Nick Fury, director of the international peacekeeping agency known as S.H.I.E.L.D., finds himself in need of a team to pull the world back from the brink of disaster. Spanning the globe, a daring recruitment effort begins!",
      "release_date": "2012-04-25"
    }
  ]
}